{"API Cluster Suite": 5005495,
 "API Limits": 4991610,
 "ClusterFaults Test Suite": 5004465,
 "Five-Node API Suite of Suites": 5004493,
 "MonitorHardwareHealth Suite": 4995873,
 "PVR 4-Node Suite - IP6, IP5 RemoveAdd, Failing Nodes": 5004564,
 "PVR Suite of Suites (1, 4, 5, 7) with API Volume & Customer Installable": 5004535,
 "[Clones] Suite - Block Drive Failure": 4992417,
 "[Clones] Suite - Slice Drive Failure": 4992293,
 "[Cluster Failure Recovery] Full Suite_Rev02": 4991965,
 "[Group Snapshots] Suite - Sunny Day Comprehensive Workload Run_Rev02": 5009358,
 "[QoS] Suite - Rainy Drive": 4995909,
 "[QoS] Suite - Rainy Node": 4995915,
 "[RemoteRep] 8-Node Remote Rep Suite": 4995902,
 "[RemoteRep] Snapshots in Replication Test Suite_ChunkA": 5000943,
 "[SNMPTrap] SNMPTrapd full single/multiple client regression suite": 5005181,
 "[SliceBalance] Test Suite": 4991551,
 "[SnapRep] Suite Driver - Cluster Perturbations and Failover": 4995877,
 "[SnapRep] Suite Driver - Snapshot Expiration And Deletion": 4992929,
 "[Snapshots] Suite - Graceful Removal": 4997015,
 "[Snapshots] Suite - Node Failure": 4992733,
 "[Test Suite] 5Node Add Remove Fail Nodes Chunk A Suite - RFMS": 4999109,
 "[Test Suite] 5Node Add Remove Fail Nodes Chunk E Suite": 5007545,
 "[TestSuite] IP8 Stage2 and 3 changes.": 4991557,
 "[TestSuite] Perturb after Recycle with high MetaData v2": 5007540,
 "[TestSuite]10-Node-ZooKeeper Supplemental": 5005801,
 "[TestSuite]5-Node-ZooKeeper Regression Suite": 5007552,
 "[TestSuite]5-Node-ZooKeeper Supplemental": 5004438,
 "[TestSuite]Customer Installable - Node At all States": 4994486,
 "[TestSuite]IP1 - Verify Block Cluster Full Faults and Events": 4995887,
 "[TestSuite]IP2 - Cluster Full Toggle Stages": 5004440,
 "[TestSuite]IP2 - Cluster Full stage 5 to 3 Adding Nodes": 5004505,
 "[TestSuite]IP4 - Flex Space Calculations": 4991592,
 "[VAAI] VAAI Test Suite": 4997437,
 "[cdp-suite] - CDP Ungraceful - Stage X - Suite A - RFMS": 4996599,
 "[cdp-suite] - Graceful Removals - Stage X - Suite": 4992399,
 "[cdp-suite] - Sunny Day - Stage 2 - Suite": 4991588,
 "[iSCSI] Connectivity Regression": 4992425,
 "[lacp-suite] 4 Node LACP test cases": 4995893,
 "[nodefail] Node Failure Regression Suite": 4995882,
 "[volprov] Volume Provisioning Regression": 4991569
}
